<?xml version="1.0" encoding="UTF-8" standalone="no"?>
<!-- Created with Inkscape (http://www.inkscape.org/) -->

<svg
   xmlns:dc="http://purl.org/dc/elements/1.1/"
   xmlns:cc="http://creativecommons.org/ns#"
   xmlns:rdf="http://www.w3.org/1999/02/22-rdf-syntax-ns#"
   xmlns:svg="http://www.w3.org/2000/svg"
   xmlns="http://www.w3.org/2000/svg"
   xmlns:sodipodi="http://sodipodi.sourceforge.net/DTD/sodipodi-0.dtd"
   xmlns:inkscape="http://www.inkscape.org/namespaces/inkscape"
   version="1.1"
   id="svg2"
   width="225"
   height="225"
   viewBox="0 0 225 225"
   sodipodi:docname="logo.svg"
   inkscape:version="0.92.1 r15371"
   inkscape:export-filename="C:\Users\Cécile\SharePoint\Bordeaux - Documents\Préparation PGT - PEDAGO\Modules\Semestre 7\Développement Windows\Images\logo.png"
   inkscape:export-xdpi="39"
   inkscape:export-ydpi="39">
  <metadata
     id="metadata8">
    <rdf:RDF>
      <cc:Work
         rdf:about="">
        <dc:format>image/svg+xml</dc:format>
        <dc:type
           rdf:resource="http://purl.org/dc/dcmitype/StillImage" />
        <dc:title></dc:title>
      </cc:Work>
    </rdf:RDF>
  </metadata>
  <defs
     id="defs6" />
  <sodipodi:namedview
     pagecolor="#ffffff"
     bordercolor="#666666"
     borderopacity="1"
     objecttolerance="10"
     gridtolerance="10"
     guidetolerance="10"
     inkscape:pageopacity="0"
     inkscape:pageshadow="2"
     inkscape:window-width="1920"
     inkscape:window-height="986"
     id="namedview4"
     showgrid="false"
     showguides="false"
     inkscape:zoom="2.0977778"
     inkscape:cx="106.13189"
     inkscape:cy="105.30811"
     inkscape:window-x="-11"
     inkscape:window-y="-11"
     inkscape:window-maximized="1"
     inkscape:current-layer="svg2" />
  <path
     style="fill:#000000"
     d="M 19.230005,191.88482 C 11.406862,188.01243 5.379674,178.94919 2.4967847,166.72261 0.73815146,159.2641 0.52606914,137.2276 2.0608216,121.42368 3.5104978,106.49582 8.1974186,83.564742 12.456066,70.564244 18.337092,52.611062 26.369526,41.868886 39.053629,34.99399 44.986624,31.778254 46.176923,31.500688 54,31.508644 64.847854,31.519675 66.907349,32.633955 75.969073,43.394914 86.217482,55.565082 86.021077,55.5 112.5,55.5 c 26.47892,0 26.28252,0.06508 36.53093,-12.105086 9.06172,-10.760959 11.12122,-11.875239 21.96907,-11.88627 7.82308,-0.008 9.01338,0.26961 14.94637,3.485346 17.12846,9.283775 25.98122,25.606994 33.04489,60.930052 5.74157,28.711628 6.68736,62.730338 2.11506,76.075958 -2.74047,7.99888 -7.75885,15.07922 -13.27897,18.73507 -3.66316,2.42604 -5.28734,2.80135 -13.25111,3.06204 -7.66299,0.25084 -9.57184,-0.013 -12.25909,-1.69447 -4.96703,-3.10797 -10.57704,-10.96038 -17.37689,-24.32269 -3.43699,-6.75397 -7.37822,-13.76898 -8.75831,-15.5889 C 151.08063,145.46394 151.31604,145.5 112.5,145.5 c -38.81604,0 -38.580629,-0.0361 -43.681949,6.69105 -1.380086,1.81992 -5.321324,8.83493 -8.758307,15.5889 -6.828372,13.41836 -12.446335,21.26546 -17.376896,24.27185 -4.6456,2.83263 -17.578933,2.74055 -23.452843,-0.16698 z m 23.175807,-3.24518 c 4.384177,-3.34398 10.064014,-11.90527 16.52909,-24.91452 5.971059,-12.01516 10.074309,-17.4132 14.708186,-19.34935 4.793443,-2.00283 72.920382,-2.00283 77.713822,0 4.63388,1.93615 8.73713,7.33419 14.70819,19.34935 6.54055,13.16112 12.15298,21.57663 16.70609,25.04978 3.11975,2.37978 4.47873,2.7251 10.72445,2.7251 6.21112,0 7.80007,-0.3985 12.07818,-3.02914 6.10508,-3.75405 10.73717,-10.47191 13.68635,-19.8491 1.98529,-6.31241 2.22345,-9.05371 2.09573,-24.12176 -0.26841,-31.66606 -7.12564,-67.21495 -16.5771,-85.9382 -6.81439,-13.499219 -21.9282,-24.847514 -33.09226,-24.847514 -9.20698,0 -11.90186,1.520852 -20.35999,11.490155 -10.92714,12.879427 -10.53803,12.751635 -38.82655,12.751635 -28.288519,0 -27.899414,0.127792 -38.826549,-12.751635 -8.458133,-9.969303 -11.153009,-11.490155 -20.359993,-11.490155 -11.827138,0 -26.86852,11.77766 -33.80006,26.466027 -7.80551,16.540363 -13.7201166,44.145087 -15.6405574,72.997807 -2.1412921,32.17079 2.8795059,48.60641 17.1454384,56.12572 4.813592,2.53716 6.244122,2.83059 11.736902,2.40747 4.697411,-0.36184 7.100774,-1.1268 9.650631,-3.07167 z M 161.45455,115.54545 c -1.85956,-1.85955 -2.44684,-3.49577 -2.42275,-6.75 0.0342,-4.62255 1.20591,-6.79646 4.65246,-8.63211 3.89807,-2.07612 8.22518,-1.407745 11.39266,1.75974 3.83134,3.83133 3.95638,8.69547 0.33419,13.00019 -2.17775,2.58811 -3.29666,3.07673 -7.04546,3.07673 -3.39832,0 -5.03941,-0.58285 -6.9111,-2.45455 z m 10.91059,-1.61803 c 3.23812,-2.5471 3.60387,-7.7405 0.7284,-10.34277 -2.78161,-2.51732 -7.91951,-1.72548 -10.39237,1.60166 -1.73007,2.32775 -1.83388,3.0791 -0.77769,5.62895 1.13022,2.7286 4.04347,4.95634 6.69166,5.11706 0.61333,0.0372 2.30083,-0.86498 3.75,-2.0049 z M 45.492721,113.64869 C 40.03789,111.1085 34.540136,105.53698 32.374904,100.35485 30.533442,95.947607 30.617397,84.159945 32.522727,79.599848 39.382962,63.180996 62.111308,58.703175 74.937803,71.24345 80.490446,76.672187 82.450726,81.549325 82.476668,90 c 0.01976,6.437526 -0.389376,8.244345 -2.888107,12.75433 -1.601123,2.88988 -4.406382,6.39481 -6.23391,7.78874 -7.706941,5.87837 -19.165069,7.15554 -27.86193,3.10562 z m 21.483809,-2.6563 C 81.086112,103.71578 84.437102,85.358919 73.699319,74.164681 62.503659,62.493103 44.566613,64.673024 36.316863,78.707837 32.645282,84.954081 32.407719,94.282141 35.757966,100.65327 41.72135,111.99379 55.918003,116.6955 66.97653,110.99239 Z M 146.47576,98.64304 C 138.94332,95.264065 139.54237,83.626256 147.38192,81.038969 154.41399,78.718176 160,82.889096 160,90.460545 c 0,7.071226 -6.81284,11.193155 -13.52424,8.182495 z m 9.06969,-4.097585 C 156.89545,93.195455 158,91.15 158,90 158,87.240731 153.6744,83 150.85991,83 147.67206,83 144,86.819509 144,90.135359 144,93.485286 147.44783,97 150.73402,97 c 1.29629,0 3.46143,-1.104545 4.81143,-2.454545 z m 24.93031,4.097585 c -7.58275,-3.401541 -6.92976,-15.017984 0.99115,-17.632119 4.02701,-1.329034 7.08113,-0.652361 10.28309,2.278328 3.20626,2.934626 3.1794,10.488995 -0.0481,13.521052 -2.98687,2.806015 -7.43699,3.532529 -11.22617,1.832739 z m 9.06969,-4.097585 C 190.89545,93.195455 192,91.15 192,90 192,87.240731 187.6744,83 184.85991,83 181.80691,83 178,86.806887 178,89.859863 178,93.095406 181.67472,97 184.71977,97 c 1.30413,0 3.47568,-1.104545 4.82568,-2.454545 z M 163.5,79.792183 c -3.30458,-1.895178 -4.43473,-4.067254 -4.4682,-8.587638 -0.0241,-3.254221 0.56319,-4.890445 2.42275,-6.75 C 167.21503,58.694064 178,63.286567 178,71.5 c 0,7.123582 -8.28056,11.859027 -14.5,8.292183 z m 9.67126,-3.447171 C 174.21487,75.40056 175,73.320453 175,71.5 c 0,-7.378976 -9.83463,-9.547886 -12.88973,-2.842675 -1.4908,3.271944 -1.43513,3.659966 0.96231,6.707816 2.43298,3.093034 7.24747,3.560182 10.09868,0.979871 z"
     id="path4487"
     inkscape:connector-curvature="0"
     inkscape:export-xdpi="39"
     inkscape:export-ydpi="39" />
  <path
     style="fill:#000000;stroke-width:0.28845504"
     d="m 53.534988,105.60492 c -6.78169,-1.08334 -12.7912,-6.081047 -14.74894,-12.265705 -0.21377,-0.67531 -0.38425,-2.57844 -0.37885,-4.22919 0.0158,-4.81759 1.56564,-8.04337 5.57393,-11.60113 2.51373,-2.23119 5.46169,-3.73813 8.56259,-4.37705 2.15193,-0.44339 6.38671,-0.44339 8.53864,0 6.08885,1.25456 11.7808,6.11172 13.60838,11.61256 0.65108,1.9597 0.73247,6.73112 0.14661,8.59481 -1.22405,3.893818 -4.70272,8.072445 -8.36369,10.046595 -3.63638,1.96088 -8.90186,2.86396 -12.93867,2.21911 z m 8.18995,-0.9762 c 2.81786,-0.74847 5.08103,-1.95425 7.45491,-3.97184 1.78892,-1.520417 2.55291,-2.425887 3.50453,-4.153475 2.00224,-3.6349 2.50718,-6.79299 1.66201,-10.39475 -1.30993,-5.58246 -6.22981,-10.4329 -12.34918,-12.17489 -2.76493,-0.78709 -7.6034,-0.78709 -10.36834,0 -6.11936,1.74199 -11.03924,6.59243 -12.34918,12.17489 -0.56472,2.40664 -0.56508,3.86571 -0.002,6.27558 1.53786,6.576368 7.71394,11.755605 15.24775,12.786745 1.5512,0.21231 5.46935,-0.0828 7.19904,-0.54226 z m -8.11389,-1.78451 c -2.52348,-0.42469 -5.69366,-1.99906 -7.77476,-3.861097 -4.16251,-3.724348 -5.58186,-9.243068 -3.66159,-14.236918 1.5026,-3.90767 5.21716,-7.24537 9.54672,-8.57816 3.80415,-1.17105 8.39257,-0.90687 12.04893,0.69371 1.99865,0.87492 5.22425,3.52403 6.31079,5.18291 6.859,10.472 -3.10054,23.049585 -16.47009,20.799555 z m 6.52807,-0.64819 c 4.37473,-0.92265 7.97297,-3.469677 9.94483,-7.039485 6.30773,-11.41937 -7.23387,-23.44724 -19.97646,-17.74342 -5.64624,2.52737 -9.01296,8.346 -7.99149,13.8115 1.44463,7.729668 9.66554,12.734055 18.02312,10.971405 z m -9.2253,-3.797777 c -1.44334,-0.46045 -2.51743,-1.33201 -3.27899,-2.660708 -0.72629,-1.26716 -0.79934,-4.50196 -0.12791,-5.6637 0.40249,-0.69638 0.39923,-0.89631 -0.0295,-1.81444 -0.33852,-0.72491 -0.45039,-1.65057 -0.37608,-3.11192 0.0873,-1.71707 0.25217,-2.27804 0.94472,-3.21436 1.53657,-2.07746 2.25657,-2.23646 10.12713,-2.23646 h 6.87355 v 2.18281 2.18281 h -5.66164 c -3.31954,0 -5.90566,0.11684 -6.2515,0.28245 -0.68764,0.32927 -0.80471,1.67399 -0.18576,2.1336 0.25396,0.18859 2.54819,0.32771 6.17526,0.37448 l 5.77117,0.0744 0.0886,2.25102 0.0886,2.25102 h -5.89789 c -4.18065,0 -6.00444,0.0953 -6.26383,0.32742 -0.57986,0.51882 -0.44461,1.79852 0.22391,2.11864 0.34584,0.16561 2.93196,0.28245 6.2515,0.28245 h 5.66164 v 2.15362 c 0,1.712118 -0.0989,2.187568 -0.48237,2.319238 -1.01356,0.348 -12.44106,0.15347 -13.65053,-0.23238 z m 13.523,-1.921238 v -1.77353 h -5.57374 c -6.408,0 -6.92926,-0.1381 -6.92926,-1.83574 0,-1.90061 0.28458,-1.98418 6.75619,-1.98418 h 5.74681 v -1.77353 -1.77354 h -5.69382 c -4.87022,0 -5.77449,-0.0653 -6.2515,-0.45156 -0.61483,-0.49785 -0.73261,-1.74752 -0.242,-2.56774 0.29551,-0.49403 0.69504,-0.52776 6.2515,-0.52776 h 5.93582 v -1.77354 -1.77353 h -6.63813 c -6.60198,0 -6.64434,0.004 -7.77536,0.69142 -2.24711,1.36622 -3.06868,3.98026 -2.07796,6.61159 0.58936,1.56534 0.59638,1.71404 0.12743,2.70198 -1.02312,2.15544 -0.40228,5.30007 1.3218,6.695048 1.3992,1.13212 2.45338,1.28637 8.86696,1.29746 l 6.17526,0.0107 z"
     id="path4487-1"
     inkscape:connector-curvature="0"
     sodipodi:nodetypes="sssssssssscscsssscscccssssscsssssssssssscccsssscccsssscscsccssscccsssscccscsssscc" />
  <path
     style="opacity:0.83399999;fill:#42aaff;fill-opacity:1;stroke:#0d0000;stroke-width:0.16853711;stroke-linejoin:round;stroke-miterlimit:0;stroke-dasharray:none;stroke-opacity:1"
     d="m 53.395584,113.06799 c -5.529495,-0.89926 -10.77037,-3.74828 -14.286502,-7.76636 -3.864791,-4.41652 -5.579698,-9.04956 -5.577409,-15.068093 0.0025,-6.588901 2.162261,-11.845921 6.785518,-16.516509 2.547444,-2.573525 4.943565,-4.183197 8.025822,-5.391609 8.418016,-3.30032 17.673706,-1.360501 24.465605,5.127531 4.595026,4.389446 7.114173,10.183153 7.11312,16.359244 -0.0019,11.093126 -7.81382,20.741746 -18.705947,23.103976 -1.762112,0.38216 -5.908853,0.46267 -7.820207,0.15182 z m 7.477132,-7.66489 c 4.31322,-0.87898 7.754837,-2.80361 10.299201,-5.759546 1.87573,-2.179146 3.303285,-4.64943 3.809776,-6.592552 0.369422,-1.417257 0.363435,-5.615779 -0.0105,-7.362038 -1.024874,-4.786175 -5.790591,-9.803582 -11.271214,-11.866484 -2.27217,-0.855242 -3.498693,-1.032023 -7.034689,-1.013925 -2.964071,0.01517 -3.446945,0.05941 -4.922263,0.450987 -1.917649,0.508975 -4.057174,1.474866 -5.729327,2.586511 -1.51031,1.004052 -4.158238,3.527287 -5.128517,4.887012 -2.050395,2.873371 -2.879057,6.493846 -2.444514,10.680232 0.262928,2.533052 1.052139,4.42735 2.84655,6.832413 2.892889,3.87736 7.44563,6.64184 12.230762,7.42667 1.827119,0.29967 5.162008,0.17757 7.354735,-0.26928 z"
     id="path4807"
     inkscape:connector-curvature="0" />
  <path
     style="opacity:0.83399999;fill:#42aaff;fill-opacity:1;stroke:#0d0000;stroke-width:0.16853711;stroke-linejoin:round;stroke-miterlimit:0;stroke-dasharray:none;stroke-opacity:1"
     d="m 54.958642,102.362 c -6.361274,-0.74301 -11.48535,-5.158891 -12.702978,-10.947292 -1.14512,-5.443711 2.15709,-11.258726 7.900489,-13.91234 2.232927,-1.031675 3.738675,-1.33302 6.677674,-1.336398 2.798093,-0.0032 3.648769,0.146544 5.869657,1.03335 4.236795,1.691763 7.497843,5.244146 8.561534,9.326401 0.370947,1.42363 0.373529,3.952993 0.0055,5.393187 -0.413501,1.618165 -1.63572,3.970692 -2.752041,5.297125 -2.398774,2.850267 -6.110136,4.727697 -10.169276,5.144247 -0.945798,0.0971 -1.84432,0.1665 -1.996716,0.15431 -0.152395,-0.0122 -0.779628,-0.0808 -1.39385,-0.15259 z m 9.796429,-3.870145 c 0.299178,-0.299178 0.337074,-0.56179 0.337074,-2.335868 v -1.998795 l -5.688127,-0.08862 c -3.457426,-0.05387 -5.868043,-0.159947 -6.146898,-0.270494 -0.846597,-0.335623 -0.818483,-1.827165 0.03894,-2.065797 0.230907,-0.06426 2.979489,-0.124404 6.107959,-0.133644 l 5.688127,-0.0168 v -1.57758 c 0,-0.867668 -0.04669,-1.918209 -0.103752,-2.334534 L 64.88464,86.912766 60.142952,86.80067 c -5.610272,-0.132629 -6.954419,-0.236504 -7.28055,-0.562634 -0.340127,-0.340128 -0.300876,-1.119084 0.0801,-1.589686 l 0.322107,-0.39788 5.913765,-0.05851 5.913767,-0.05851 V 81.874575 79.6157 l -5.688127,0.0029 c -5.994053,0.0031 -8.345933,0.152776 -9.470681,0.60281 -0.971271,0.388626 -2.297968,1.895472 -2.61816,2.973675 -0.392991,1.323346 -0.342586,3.930579 0.0988,5.11028 0.341237,0.912037 0.343946,0.9748 0.06846,1.585731 -0.649992,1.441423 -0.604706,4.401627 0.08927,5.835187 0.436779,0.902263 1.635395,2.016368 2.659576,2.472053 1.044838,0.464878 2.670585,0.574146 9.004207,0.60518 4.975743,0.02438 5.195966,0.01195 5.519591,-0.311681 z"
     id="path4809"
     inkscape:connector-curvature="0" />
  <path
     style="opacity:0.83399999;fill:#42aaff;fill-opacity:1;stroke:#0d0000;stroke-width:0.16853711;stroke-linejoin:round;stroke-miterlimit:0;stroke-dasharray:none;stroke-opacity:1"
     d="m 149.65495,96.798326 c -1.85372,-0.455291 -4.04584,-2.284091 -4.93969,-4.121001 -0.43218,-0.888153 -0.49213,-1.195826 -0.49258,-2.528056 -4.7e-4,-1.348721 0.0554,-1.628475 0.50417,-2.524136 0.74699,-1.490907 2.39531,-3.158972 3.83164,-3.877537 2.4083,-1.204825 4.27793,-0.682872 6.88389,1.921803 2.5542,2.552949 2.97282,4.089175 1.7489,6.418046 -1.62396,3.090055 -5.15326,5.296184 -7.53633,4.710881 z"
     id="path4811"
     inkscape:connector-curvature="0" />
  <path
     style="opacity:0.83399999;fill:#42aaff;fill-opacity:1;stroke:#0d0000;stroke-width:0.16853711;stroke-linejoin:round;stroke-miterlimit:0;stroke-dasharray:none;stroke-opacity:1"
     d="m 166.99379,77.753829 c -0.85708,-0.215331 -2.21148,-0.901995 -2.86687,-1.45347 -0.83117,-0.699383 -2.14305,-2.418829 -2.59382,-3.399647 -0.49524,-1.077585 -0.45026,-1.55658 0.32177,-3.426493 0.93717,-2.269881 2.23739,-3.636351 4.14342,-4.35455 1.38133,-0.520489 3.59191,-0.42661 4.97774,0.211396 2.85145,1.312744 4.42394,4.420532 3.77952,7.46965 -0.50615,2.394891 -1.39723,3.62151 -3.26624,4.496125 -0.85671,0.400902 -1.35618,0.515088 -2.45872,0.562099 -0.76099,0.03245 -1.67755,-0.01485 -2.0368,-0.10511 z"
     id="path4813"
     inkscape:connector-curvature="0" />
  <path
     style="opacity:0.83399999;fill:#42aaff;fill-opacity:1;stroke:#0d0000;stroke-width:0.16853711;stroke-linejoin:round;stroke-miterlimit:0;stroke-dasharray:none;stroke-opacity:1"
     d="m 183.658,96.738708 c -1.25326,-0.397393 -2.18689,-0.987356 -3.20221,-2.023478 -1.87291,-1.911289 -2.66263,-4.069169 -2.17698,-5.948531 0.72138,-2.791592 3.99734,-5.61172 6.51877,-5.61172 1.49588,0 2.8808,0.734011 4.60732,2.441884 2.40813,2.38212 2.96273,4.157471 1.94122,6.21411 -1.13716,2.289463 -3.09905,4.048766 -5.36542,4.811389 -1.19441,0.401911 -1.39105,0.411761 -2.3227,0.116346 z"
     id="path4815"
     inkscape:connector-curvature="0" />
  <path
     style="opacity:0.83399999;fill:#42aaff;fill-opacity:1;stroke:#0d0000;stroke-width:0.16853711;stroke-linejoin:round;stroke-miterlimit:0;stroke-dasharray:none;stroke-opacity:1"
     d="m 167.1267,115.55276 c -1.80236,-0.64189 -3.98024,-2.49893 -4.78834,-4.08296 -0.56972,-1.11674 -1.01153,-2.50769 -1.01153,-3.18462 0,-0.8722 0.7638,-2.25145 1.96569,-3.54961 1.97882,-2.13731 4.77645,-3.00285 7.42599,-2.29747 3.70315,0.98587 5.30611,5.28058 3.41304,9.14432 -0.6003,1.22519 -1.84627,2.43439 -3.55356,3.44867 -1.39299,0.82756 -2.235,0.95483 -3.45129,0.52167 z"
     id="path4817"
     inkscape:connector-curvature="0" />
</svg>
